{
  "meta": {
    "name":         "CryptoAsia",
    "title":        "CryptoAsia - Buy, Sell cryptocurrency inside Cambodia",
    "description":	"CryptoAsia - Simple, fast, secure way to Buy and Sell Bitcoin, Ethereum, Litecoin and more in minutes.",
    "author": 			"CryptoAsia",
    "url":					"https://cryptoasia.co",
    "favicon":			"/img/CAfavicon.png",
    "image":				"/img/bg-header.jpg",
  },
  "classBody": {
    "prim:#324466 sec:#3cd483 tert:#3792F6 err:red600 warn:yellow ok:green txt:prim": true,
		"ff:Roboto c:txt fw:300 fs:15px lh:1.1 bg:fafafa md-fs:16px_lh:1.3": true,
  },
  "fonts": [
    "https://fonts.googleapis.com/css?family=Roboto:100,300,400"
  ]
}