[
  {
    "name": "coins",
    "view": "comp-coins",
    "popup": true,
    "plain": true,
    "navRouteHide": true,
  },
  {
    "name": "payments",
    "view": "comp-payments",
    "popup": true,
    "plain": true,
    "navRouteHide": true,
  },
  {
    "name": "features",
    "view": "page-features",
    "popup": true,
    "plain": true,
    "navRouteHide": true,
  },
  {
    "route":  "/chart",
    "actions": ["APP_AUTH", "APP_ROUTE"],
    "view": "page-chart"
  },
  {
    "route":  "/news",
    "actions": ["APP_AUTH", "APP_ROUTE"],
    "view": "page-news",
  },
  {
    "route":  "/blog",
    "actions": ["APP_AUTH", "APP_ROUTE"],
    "view": "page-news",
    "name": "blog",
    "navRouteHide": true
  },
  {
    "name": "terms",
    "md": "tos",
    "splash": true,
    "authHide": true,
    "plain": true,
  },
  {
    "name": "Main",
    "route": "/",
    "actions": ["APP_AUTH", "APP_ROUTE"],
    "view": "page-main",
    "navRouteHide": true
  },
  {
    "name": "Buy/Sell",
    "route": "/trade",
    "actions": ["APP_AUTH", "APP_ROUTE"],
    "view": "page-trade",
    "plain": true,
    "navRouteHide": false,
    "auth": "login",
  },
  {
    "name": "Transaction",
    "route": "/transaction",
    "actions": ["APP_AUTH", "APP_ROUTE"],
    "view": "page-transaction",
    "plain": true,
    "navRouteHide": true,
    "auth": "login",
  },
  {
    "name":"trades",
    "route": "/trades",
    "actions" : ["APP_AUTH", "APP_ROUTE"],
    "view": "page-trades",
    //"plain":true,
    "navRouteHide": false,
    "auth":"login"
  },
  {
    "name": "login",
    "view": "page-login",
    "splash": true,
    "important": true,
    "authHide": true,
  },
  {
    "route": "/logout",
    "important": true,
    "auth": true,
    "actions": ["USER_LOGOUT"]
  },
  {
    "name": "Wing",
    "route": "/wing",
    "view": "page-wing",
    "navRouteHide": true,
  },
  {
    "name": "article",
    "route": "/:link",
    "view": "page-article",
    "navRouteHide": true
  }
]
